^C:\USERS\GARRICK\ONEDRIVE\DOCUMENTS\SCHOOL\CS2810\2\CS2810-ASSEMBLER-TEMPLATE\CS2810-ASSEMBLER-TEMPLATE\DEBUG\CS2810-ASSEMBLER-ASSIGNMENT-2.OBJ
C:\USERS\GARRICK\ONEDRIVE\DOCUMENTS\SCHOOL\CS2810\2\CS2810-ASSEMBLER-TEMPLATE\DEBUG\CS2810-ASSEMBLER-ASSIGNMENT-2.ILK
C:\USERS\GARRICK\ONEDRIVE\DOCUMENTS\SCHOOL\CS2810\2\CS2810-ASSEMBLER-TEMPLATE\DEBUG\CS2810-ASSEMBLER-ASSIGNMENT-2.EXE
C:\USERS\GARRICK\ONEDRIVE\DOCUMENTS\SCHOOL\CS2810\2\CS2810-ASSEMBLER-TEMPLATE\DEBUG\CS2810-ASSEMBLER-ASSIGNMENT-2.PDB
^C:\USERS\GARRICK\ONEDRIVE\DOCUMENTS\SCHOOL\CS2810\2\CS2810-ASSEMBLER-TEMPLATE\CS2810-ASSEMBLER-TEMPLATE\DEBUG\CS2810-ASSEMBLER-TEMPLATE.OBJ
C:\USERS\GARRICK\ONEDRIVE\DOCUMENTS\SCHOOL\CS2810\2\CS2810-ASSEMBLER-TEMPLATE\DEBUG\CS2810-ASSEMBLER-TEMPLATE.ILK
C:\USERS\GARRICK\ONEDRIVE\DOCUMENTS\SCHOOL\CS2810\2\CS2810-ASSEMBLER-TEMPLATE\DEBUG\CS2810-ASSEMBLER-TEMPLATE.EXE
C:\USERS\GARRICK\ONEDRIVE\DOCUMENTS\SCHOOL\CS2810\2\CS2810-ASSEMBLER-TEMPLATE\DEBUG\CS2810-ASSEMBLER-TEMPLATE.PDB
